249114 149089 443
166803 161587 352
8633 21230 279
219411 115202 386
150622 41877 375
124012 171375 383
114495 294765 443
94299 278049 443
227017 250385 443
87238 207689 383
25409 74101 340
121789 270859 443
106462 95753 354
198187 183089 360
254824 134469 443
36850 262142 443
219300 143707 386
91933 254433 443
292285 283450 389
88994 267529 443
252840 161810 443
216795 115141 386
167240 111481 383
48651 29712 324
132598 72400 354
77522 85914 338
89239 187102 383
286042 138282 443
198196 88930 383
239382 147248 443
190025 134987 383
108455 26204 354
98757 43494 351
231284 48522 443
99248 260672 443
74482 125603 354
80561 156930 383
228261 211121 386
62187 240598 443
290497 254530 407
203182 136436 383
233818 86966 443
246687 194136 443
11513 45447 324
216879 208695 386
175002 261665 443
82688 244303 443
182881 167844 365
62336 152468 375
198042 5678 383
181269 124300 383
15709 239830 443
158457 194236 370
119804 127893 336
161419 239507 443
25978 37751 324
191798 31945 383
243796 83618 443
134445 103002 354
231222 9878 443
173022 284818 443
78959 166149 383
27518 46672 324
3996 30936 308
145277 212881 383
16994 115853 354
26059 118858 354
124666 193694 383
167250 88406 383
234698 298759 407
253414 92880 443
15801 101248 351
216016 7590 383
226924 219871 368
47798 122208 354
216038 255049 443
63644 227715 386
272234 93344 443
280212 73701 443
244706 174507 443
177355 141247 383
226524 7631 386
157588 249673 443
44563 148319 375
132773 112796 349
295834 71459 443
297023 171172 443
248824 231218 381
146470 151073 370
27772 153496 375
162651 255259 443
118776 210426 383
191326 27716 383
37592 282850 443
222980 196441 386
5073 226458 386
4555 194139 383
237301 126499 443
295120 61909 443
18050 242375 443
485880 374319 449
407819 480908 449
419815 326862 449
353753 319316 441
426742 479453 444
593837 560913 434
557248 351738 470
538748 344157 470
447617 469268 444
514040 350858 470
300438 302341 340
361056 599687 470
591049 554781 434
529615 490478 470
449363 490487 444
449247 423950 400
354622 332903 441
418721 518306 470
465302 395943 449
491869 464890 413
525335 345168 470
417086 519370 470
542556 471820 470
372849 472281 449
433076 357844 449
463341 541983 470
480445 306742 449
481725 527491 470
586418 324725 470
571542 400028 470
580703 460004 470
454972 424479 400
357284 332586 441
429561 331642 449
399882 544918 470
418651 586235 470
490087 494494 426
392695 396431 405
356890 489996 449
324227 571396 470
348229 362304 410
552071 418286 470
360574 362571 366
329598 566663 470
584914 516786 452
573754 355019 470
596098 571292 434
543076 446638 470
479001 438843 444
565951 507324 470
376206 335830 441
365093 457316 449
309048 470030 449
389922 408907 405
478070 580593 470
541395 471475 470
551900 336391 470
436387 511919 444
316156 335797 384
578309 392479 470
435744 540128 470
389163 311424 441
345187 400022 441
349790 429447 449
498697 321988 449
399287 579822 470
507839 362894 449
411054 397164 449
483414 576316 470
583590 381341 470
584457 580044 434
496779 584646 470
526957 589640 452
578388 412846 470
559531 388261 470
418306 552630 470
565970 399209 470
444529 331929 449
493836 480222 426
342593 323250 384
316787 324567 384
577057 480204 470
437456 599194 470
450515 376849 449
323284 401295 441
401254 300039 441
420025 317533 449
594521 339879 470
487746 467794 413
561796 567159 421
322165 462574 449
524310 334103 470
431210 472644 444
508690 380823 449
552336 390577 470
594678 417452 470
443134 398113 449
447193 386829 449
450233 500410 444
584019 570272 434
970473 920170 507
970709 922039 507
936291 951298 507
976151 912232 507
963078 996980 458
926563 981732 507
967385 986540 458
976047 912056 507
916354 957044 507
944004 916311 507
922897 948650 507
962186 908614 507
988609 978010 427
923984 925947 370
973656 913491 507
962742 973835 458
940722 929618 507
974373 946773 458
977212 982405 427
933904 974988 507
951397 927485 507
953307 915535 507
987991 915564 507
983431 981890 383
974179 954749 458
