1 10 20
100 200 125
201 210 89
900 1000 174
129498 442764 449
180128 896344 525
55976 853739 525
93131 231537 443
865961 652464 525
533204 263272 470
773542 600568 509
695543 749314 504
280423 728365 509
842386 572760 525
82946 869076 525
145682 435838 449
113499 198132 383
566496 368189 470
69815 530189 470
563238 121414 470
703494 274347 509
590715 927373 525
709820 487579 509
980676 527922 525
486297 430542 444
666584 699054 442
982954 228778 525
855271 8751 525
194578 953904 525
686371 370519 509
800261 749540 468
387417 498865 449
167555 538365 470
11851 494038 449
786930 843967 525
608939 722305 509
479960 323098 449
577172 464559 470
517637 157422 470
764178 46202 509
372843 582898 470
858586 787189 525
581391 166630 470
759632 70275 509
842359 233955 525
161283 685073 509
687339 471002 509
325550 629671 509
814948 318212 509
118463 651337 509
515507 844222 525
981723 697640 525
171890 347546 443
865992 364097 525
611235 930283 525
31055 834331 509
400806 470637 449
115523 207596 383
392128 690757 509
555950 710139 509
116586 78164 354
647607 481365 509
463270 235954 449
23872 665045 509
351092 38851 443
852094 413380 525
390842 211592 443
936258 751592 525
649441 269842 509
101136 959 351
932200 312702 525
828284 624893 509
301056 918600 525
159339 47298 383
593218 559744 434
968483 728996 525
943754 856644 507
886178 763820 525
180677 694841 509
121209 549802 470
975958 572100 525
186228 998208 525
218845 177115 386
832646 592055 509
488337 177699 449
336570 829154 509
702845 498013 509
773670 662657 504
423218 462499 444
39934 447952 449
320013 314755 353
923392 265273 525
471733 835877 509
437474 79412 449
494482 774954 509
852261 782105 525
516893 30587 470
551184 864864 525
454674 133893 449
787130 329959 509
286319 3671 443
117349 218437 386
447407 503779 444
670955 441746 509
904026 961689 507
966238 4975 525
583277 565057 390
857696 721590 525
446076 412275 418
883156 184547 525
583174 292242 470
129113 584295 470
663952 244375 509
185713 559082 470
613136 274572 470
48345 11042 324
820050 785014 468
236495 41714 443
116862 869329 525
849598 770315 525
401223 746321 509
741239 416183 509
151003 102668 375
435092 819957 509
115731 174886 383
850409 697074 525
175902 687655 509
685411 361582 509
127289 972755 525
571095 727486 509
715709 661833 504
782423 800350 468
961045 558569 525
546133 914759 525
423081 591476 470
889307 31745 525
135371 312028 443
193043 619831 470
311396 517117 470
499644 524814 470
40639 496130 449
266200 752472 509
67613 688934 509
737586 860875 525
210082 652065 509
23538 327768 443
912650 675872 525
403100 540523 470
832319 673832 504
717660 243957 509
100878 902737 525
400370 821526 509
647360 690904 442
558559 535055 452
871211 668277 525
320022 152124 443
188603 883670 525
274672 159319 443
463601 210786 449
983639 348245 525
534674 542226 408
91090 495812 449
865624 911261 476
666830 132239 509
901637 931090 476
951933 261560 525
145061 347396 443
131479 998666 525
153879 563629 470
636768 900340 525
169820 696489 509
400577 706711 509
256046 592060 470
211763 468221 449
332919 669633 509
814318 312185 509
192848 248987 443
201463 158769 370
530442 530262 209
67832 109847 354
865550 321667 525
68211 655165 509
841578 82209 525
346925 567010 470
67263 964674 525
700804 26170 509
992475 908591 507
48261 565934 470
511205 506407 382
719393 229655 509
63877 367946 443
460413 126865 449
807419 839399 525
171790 810981 509
796250 716139 468
615411 709435 509
934735 911206 476
789926 230559 509
312480 834517 509
892186 466812 525
606747 665744 509
776357 34367 509
876544 442729 525
422682 712330 509
138604 682626 509
268236 580201 470
727757 325553 509
834415 139210 509
686946 382888 509
798993 625268 509
364653 477495 449
103684 961063 525
622145 352578 470
711713 902171 525
140139 546825 470
172401 673807 509
349749 746359 509
415568 593851 470
300756 32888 443
957769 391575 525
987004 781282 525
231633 132497 443
124516 589410 470
448230 843363 525
868500 9890 525
893942 225490 525
33453 373051 443
820467 798012 450
649841 290076 509
27565 293935 443
420769 939863 525
188320 85233 383
463280 386250 449
417751 66170 449
919721 90263 525
448055 400656 449
452461 705010 509
474635 968368 525
470385 284292 449
192670 128206 383
573605 985729 525
260690 832349 509
784414 311790 509
630312 791314 504
784275 137023 509
192799 367753 443
660434 818587 504
767071 128150 509
82877 22072 351
276158 931938 525
602245 836912 509
847776 378251 525
247029 667430 509
996200 542277 525
