624296 462503 470
930694 669654 525
312388 432348 449
741164 960857 525
896977 707348 525
806612 143746 509
126536 93547 354
279739 323338 389
440641 544277 470
321867 857535 525
575795 108949 470
864937 773126 525
271634 91536 443
746266 706513 424
632315 878897 525
524956 13821 470
297203 448617 449
810303 612449 509
473557 237705 449
82389 213974 383
330263 860014 525
96040 879158 525
104216 46243 351
473262 851998 525
753416 10039 509
133161 943209 525
920096 896579 476
102601 355399 443
501709 143809 449
85546 233396 443
580187 512597 452
762673 92493 509
880317 546337 525
409168 264195 441
279924 206360 443
894585 297568 525
119040 909309 525
198393 339049 443
876821 193023 525
748233 115668 509
932794 523409 525
522356 121216 470
506171 511719 382
337307 99501 443
158712 784137 509
211952 721418 509
207961 918746 525
488515 457937 444
579184 512918 452
406507 156395 443
673439 8088 509
52667 864360 525
713444 719206 380
445966 592671 470
264321 225401 443
661362 359955 509
943743 299321 525
895243 176661 525
334222 999450 525
752462 727587 424
86103 739404 509
933532 613678 525
519668 440647 470
459144 81177 449
817728 355495 509
686983 917304 525
36343 659444 509
800495 460178 509
532786 97036 470
347660 654245 509
682527 265660 509
980871 667704 525
215419 630774 509
367466 244099 441
892346 795858 525
489584 204684 449
478796 368629 449
941567 938014 507
918795 304428 525
33425 903574 525
745398 75427 509
150985 589859 470
427054 75438 449
277266 742756 509
875040 244714 525
137430 823593 509
203241 914872 525
517730 850917 525
32043 507270 449
483048 574308 470
555592 226622 470
959142 781363 525
875387 489302 525
212786 305023 443
705285 674651 504
312836 2972 443
936594 226362 525
275071 656231 509
20038 448621 449
525062 387187 470
139773 198467 383
478152 25919 449
48648 542249 470
374358 422867 449
823440 440975 509
653097 449936 509
686128 337942 509
414784 848452 525
822800 722111 468
408343 933814 525
237584 914746 525
620754 512286 452
69959 769258 509
161434 444513 449
404255 709496 509
890862 150107 525
756242 308350 509
251700 853940 525
287241 657666 509
587161 847892 525
486005 580225 470
630541 591025 509
992403 442950 525
26555 927293 525
166169 641804 509
554674 801655 509
987295 956758 458
58516 2049 340
562666 200328 470
986002 686871 525
709063 863135 525
795014 677688 504
825651 175641 509
976545 481701 525
285168 135299 443
753708 559503 509
554645 43087 470
691893 748862 504
185899 881576 525
166312 218939 386
417746 737611 509
936027 997617 507
128281 45510 354
775693 901210 525
770894 537723 509
952343 360824 525
652396 449594 509
740042 129917 509
560591 481491 470
776590 310029 509
658288 944675 525
316330 380658 441
153019 201385 383
246235 769385 509
576128 450709 470
567623 265845 470
8792 842389 525
203984 232263 443
411907 58676 449
645862 655618 385
693024 226005 509
351499 140615 443
933848 790493 525
654466 849147 525
582488 133698 470
571878 839025 525
57254 855269 525
708551 802047 468
118703 675701 509
320498 491817 449
183474 10108 383
494395 161359 449
941147 965955 414
437727 814447 509
569042 824231 509
199120 755983 509
181895 800995 509
456308 750042 509
743222 133931 509
665898 565554 509
699760 186781 509
399038 160326 443
986469 268957 525
351697 381132 423
746442 587715 509
239410 995757 525
340270 8350 443
600789 651119 509
575011 112775 470
377273 587754 470
116050 986510 525
23786 436169 449
756044 158036 509
840402 979660 507
594933 94364 470
628086 647975 416
159333 729762 509
346023 912501 525
65147 709883 509
441450 726430 509
32631 205832 383
118702 310847 443
930433 822992 525
797045 789190 468
803183 534657 509
892638 315161 525
134272 1761 354
738943 976557 525
786792 89915 509
991545 33425 525
278603 267344 407
230626 140105 386
790974 742124 468
6233 879632 525
669039 215712 509
478091 747833 509
823990 3320 509
913502 648281 525
210141 368093 443
512709 933002 525
737950 558573 509
382874 713411 509
479373 641182 509
614745 88016 470
708929 111717 509
156422 633999 509
407576 542126 470
925877 199281 525
777130 416625 509
906498 305009 525
299777 771312 509
201494 890601 525
534118 365178 470
54080 772976 509
29989 725272 509
522952 731845 509
871526 380770 525
764823 187499 509
349848 88519 443
72279 891695 525
619604 82263 470
951105 803969 525
225161 439011 449
794535 640535 504
739490 469563 509
435624 39003 449
111339 916101 525
770843 879303 525
781479 599702 509
401494 856930 525
