1 20 21
20 1 21
30 30 19
456351 915060 525
315587 387196 441
99033 922297 525
732838 481371 509
39275 775389 509
340987 25246 443
224460 797931 509
263550 587921 470
38872 278760 443
643978 760497 504
327612 252257 407
357620 520665 470
188 386968 443
179269 587303 470
729107 68782 509
203328 351609 443
915065 903943 476
461323 313127 449
389370 608420 470
146010 37163 375
612233 500113 470
557140 872640 525
374345 66059 443
439152 287925 449
45042 910830 525
256916 429306 449
322276 370099 441
469569 886890 525
484644 433459 444
905201 676081 525
470046 280648 449
558082 796615 509
383399 658466 509
648845 959089 525
29889 531128 470
512779 516761 395
396141 50061 443
968685 802598 525
667807 540777 509
260185 837177 509
847967 869920 419
488741 865134 525
383218 231580 441
176649 623656 470
133967 708169 509
347193 694933 509
93827 663959 509
164767 697461 509
1901 896320 525
722713 662048 504
593260 112091 470
838480 538688 525
218808 944695 525
11470 627535 509
628152 752688 504
388413 61040 443
426270 134599 449
527598 349362 470
178967 693298 509
773291 102953 509
580449 63845 470
699070 47015 509
718850 679147 504
111218 235333 443
830713 23906 509
906919 575706 525
22135 874612 525
409289 684613 509
800663 463186 509
577287 272224 470
275003 184917 443
191997 107773 383
632881 234807 509
279240 336812 389
463529 747119 509
633728 599236 509
445646 659999 509
821878 194519 509
362153 50657 443
465041 44395 449
55789 160731 383
698863 549182 509
520709 874350 525
988955 166707 525
241288 806929 509
493160 673967 509
45954 645296 509
836986 319189 509
546752 179209 470
141294 96544 354
784345 371698 509
449538 51786 449
102100 116260 354
97732 604867 470
755681 157244 509
719800 178059 509
337014 183464 443
798059 488638 509
751343 729777 424
59542 225898 386
698115 697869 367
50402 427423 449
314227 337001 384
500414 339986 449
834333 751858 468
325526 63729 443
133519 188797 383
672538 695352 442
668928 276259 509
557668 376566 470
498827 754331 509
713328 365508 509
56787 410461 449
303898 386384 441
616165 779221 509
456425 97677 449
872854 35559 525
911316 620041 525
904584 439372 525
970387 290745 525
468445 823595 509
335129 389275 441
300408 177332 443
612488 507557 470
707450 218572 509
57697 775215 509
802947 504896 509
554803 963631 525
572070 909035 525
103098 249866 443
283091 190770 443
943242 495397 525
245965 436667 449
740790 726323 424
983438 364651 525
339502 127495 443
20065 252952 443
907717 125797 525
756081 547469 509
19208 908004 525
967155 373179 525
882225 193428 525
419141 980778 525
919540 794583 525
46009 36504 314
787182 219617 509
436176 760048 509
441023 381972 449
388222 213908 443
617781 908195 525
356030 907508 525
639355 347049 509
349650 52088 443
49952 567320 470
883365 176073 525
216631 73392 386
812559 975089 525
161246 452254 449
582714 254606 470
573006 728946 509
749855 641301 504
236716 115915 443
359254 147825 443
704723 125338 509
418122 496186 444
145486 195630 383
268864 291989 407
227233 252960 443
674131 433409 509
733042 542472 509
364219 842733 525
455454 923934 525
917985 639728 525
754117 616976 509
100012 837901 525
305810 500925 449
819730 866383 525
247547 981030 525
576139 412442 470
894584 596280 525
543162 522154 408
781732 141661 509
270021 523185 470
441677 894227 525
377427 682751 509
718779 983257 525
867018 383401 525
915932 911547 401
587981 891160 525
459368 67340 449
714865 127963 509
216081 830242 509
729051 957232 525
113160 990533 525
534586 220506 470
178685 436079 449
579712 993255 525
989795 57163 525
801184 763596 468
595657 610467 403
565329 88817 470
31273 187255 383
896321 436758 525
603291 204585 470
583048 722893 509
87651 94496 333
33796 606389 470
698192 380270 509
108092 132561 349
85112 138789 354
589607 259493 470
435657 313165 449
839027 960253 507
814339 974142 525
97261 223091 386
600945 70575 470
51577 825996 509
409768 712043 509
279260 993002 525
65374 633779 509
576837 828410 509
707490 444306 509
988361 208584 525
232331 138795 443
653904 527927 509
876195 123611 525
602435 490695 470
418465 994039 525
257361 990523 525
293351 142532 443
834100 696269 504
688648 944428 525
274384 342444 389
11155 148992 375
34503 805923 509
387138 703098 509
898646 421648 525
824376 537030 509
299712 176146 443
61792 801083 509
173115 9614 383
871598 905548 445
290532 796270 509
352220 892848 525
648489 305967 509
576663 1222 470
826172 390864 509
